﻿Dates,SearchTerm1,SearchTerm2
1,Bone,Photograph
2,Divination,Textile
3,Past,Orientation
4,Royal,Map
5,Written,Evidence
6,Lucky,Statistics
7,Emotions,Belonging
8,Porous,Hypothesis
9,Inscription,Model
10,Religious,Theory
11,Crack,Figure
12,Technology,Population
13,Scraper,Sample
14,Objectivity,Significance
15,Auspicious,Palimpsest
16,Scapula,Feature
17,Goat,Deposit
18,Sound,Stakeholder
19,Ritual,Drawing
20,Future,Contemporary
21,Treatment,Deep History
22,Household,Pottery
23,Drill,Bone
24,Earliest,Feast
25,Fire,Oral History
26,Diviner,Posthole
27,Hollow,Descendant
28,Present,Midden
29,Trash pit,Archive
30,Latest,Provenance/Provenience
31,Sacred,Lithic
